<?xml version="1.0" encoding="UTF-8" standalone="no"?>
<svg
   xmlns:dc="http://purl.org/dc/elements/1.1/"
   xmlns:cc="http://creativecommons.org/ns#"
   xmlns:rdf="http://www.w3.org/1999/02/22-rdf-syntax-ns#"
   xmlns:svg="http://www.w3.org/2000/svg"
   xmlns="http://www.w3.org/2000/svg"
   xmlns:xlink="http://www.w3.org/1999/xlink"
   xmlns:sodipodi="http://sodipodi.sourceforge.net/DTD/sodipodi-0.dtd"
   xmlns:inkscape="http://www.inkscape.org/namespaces/inkscape"
   width="395.91699"
   height="106.16739"
   version="1.1"
   id="svg197"
   sodipodi:docname="head_logo.svg"
   inkscape:version="0.92.2 5c3e80d, 2017-08-06">
  <sodipodi:namedview
     pagecolor="#ffffff"
     bordercolor="#666666"
     borderopacity="1"
     objecttolerance="10"
     gridtolerance="10"
     guidetolerance="10"
     inkscape:pageopacity="0"
     inkscape:pageshadow="2"
     inkscape:window-width="2414"
     inkscape:window-height="1475"
     id="namedview199"
     showgrid="false"
     inkscape:zoom="3.84"
     inkscape:cx="215.81485"
     inkscape:cy="46.742101"
     inkscape:window-x="244"
     inkscape:window-y="125"
     inkscape:window-maximized="0"
     inkscape:current-layer="svg_90"
     inkscape:pagecheckerboard="true"
     fit-margin-top="0"
     fit-margin-left="0"
     fit-margin-right="0"
     fit-margin-bottom="0" />
  <defs
     id="defs6">
    <linearGradient
       y2="4.9951272"
       x2="268.49655"
       y1="185.53198"
       x1="196.66177"
       id="linearGradient14160-3-2"
       xlink:href="#linearGradient949"
       gradientTransform="scale(0.99958115,1.000419)"
       gradientUnits="userSpaceOnUse" />
    <linearGradient
       id="linearGradient949">
      <stop
         stop-color="#fd008d"
         offset="0"
         id="stop953" />
      <stop
         stop-color="#0065bd"
         offset="1"
         id="stop955" />
    </linearGradient>
  </defs>
  <metadata
     id="metadata1266">image/svg+xml<rdf:RDF>
  <cc:Work
     rdf:about="">
    <dc:format>image/svg+xml</dc:format>
    <dc:type
       rdf:resource="http://purl.org/dc/dcmitype/StillImage" />
    <dc:title></dc:title>
  </cc:Work>
</rdf:RDF>
</metadata>
  <g
     id="g12"
     transform="translate(66.063419,1)">
    <title
       id="title9">background</title>
    <rect
       id="canvas_background"
       height="106.16739"
       width="302"
       y="-1"
       x="-1"
       style="fill:none" />
  </g>
  <g
     id="g195"
     transform="translate(66.063419,1)">
    <title
       id="title14">Layer 1</title>
    <g
       id="layer1"
       transform="translate(31.770833)">
      <rect
         rx="148.16667"
         ry="148.16667"
         y="-2e-06"
         x="194.00258"
         height="104.16739"
         width="104.08015"
         id="rect14148-5-2"
         style="fill:url(#linearGradient14160-3-2);fill-rule:evenodd;stroke-width:0.025916;stroke-opacity:0.85849101" />
      <g
         id="g1165-0"
         transform="matrix(3.3071733,0,0,3.3071733,-454.24715,-344.77461)">
        <path
           d="m 211.59414,114.87882 3.95315,11.11401 h 3.39801 l 1.96693,-5.55354 -2.44701,-0.7547 -0.59655,1.94683 -0.58874,2.15545 -0.60559,-2.18913 -2.03546,-6.71892 z"
           id="path1125-9"
           inkscape:connector-curvature="0"
           style="fill:#ffffff;stroke-width:0.087662" />
        <path
           id="text972-0-4-5-3-12-9-2-5-3-5-3"
           d="m 204.64851,117.06792 h 1.53079 c 0.9308,0 1.61489,0.28068 2.05225,0.84199 0.43739,0.56133 0.65607,1.40329 0.65607,2.52593 0,1.12261 -0.21868,1.96457 -0.65607,2.52591 -0.43736,0.5613 -1.12145,0.84195 -2.05225,0.84195 h -1.53079 z m -2.89337,-2.1891 v 11.11401 h 4.71013 c 1.73828,0 3.06719,-0.47712 3.98678,-1.43135 0.93081,-0.96547 1.39622,-2.34068 1.39622,-4.12566 0,-1.78498 -0.46541,-3.15459 -1.39622,-4.10882 -0.91959,-0.96546 -2.2485,-1.44818 -3.98678,-1.44818 z"
           inkscape:connector-curvature="0"
           style="fill:#ffffff;stroke-width:0.087662" />
        <path
           d="m 222.70602,112.94734 -0.10812,0.32883 0.32807,0.10717 0.10909,-0.32819 -0.32912,-0.10771 v 0"
           id="path1121-6"
           inkscape:connector-curvature="0"
           style="fill:#ffffff;stroke-width:0.016002" />
        <path
           d="m 221.5065,113.28255 -0.10332,0.32614 0.32746,0.10634 0.10442,-0.32551 -0.32853,-0.10689 v 0"
           id="path1119-0"
           inkscape:connector-curvature="0"
           style="fill:#ffffff;stroke-width:0.016002" />
        <path
           d="m 221.62685,114.03833 -0.10305,0.32107 0.32487,0.10497 0.10415,-0.32044 -0.32596,-0.10552 v 0"
           id="path1117-6"
           inkscape:connector-curvature="0"
           style="fill:#ffffff;stroke-width:0.016002" />
        <path
           d="m 223.57506,114.66922 -0.10922,0.31742 0.32195,0.10401 0.11032,-0.31683 -0.32298,-0.10455 v 0"
           id="path1115-2"
           inkscape:connector-curvature="0"
           style="fill:#ffffff;stroke-width:0.016002" />
        <path
           d="m 222.17322,114.56923 -0.10428,0.31762 0.32288,0.10401 0.10538,-0.31703 -0.32391,-0.10456 v 0"
           id="path1113-6"
           inkscape:connector-curvature="0"
           style="fill:#ffffff;stroke-width:0.016002" />
        <path
           d="m 222.06901,114.88691 -0.32334,-0.10429 -0.1025,0.31605 -0.10196,0.31392 0.32133,0.10305 0.10291,-0.31333 0.1036,-0.3155 v 0"
           id="path1111-1"
           inkscape:connector-curvature="0"
           style="fill:#ffffff;stroke-width:0.016002" />
        <path
           d="m 221.86248,115.51564 -0.2038,0.62032 -0.10086,0.30704 0.31782,0.101 0.10181,-0.30647 0.31837,0.10154 0.20781,-0.61804 -0.64118,-0.20549 v 0"
           id="path1109-8"
           inkscape:connector-curvature="0"
           style="fill:#ffffff;stroke-width:0.016002" />
        <path
           d="m 221.09747,114.57375 -0.10045,0.31727 0.32329,0.10387 0.10155,-0.31666 -0.32435,-0.10442 v 0"
           id="path1107-7"
           inkscape:connector-curvature="0"
           style="fill:#ffffff;stroke-width:0.016002" />
        <path
           d="m 220.99706,114.89107 -0.3238,-0.10415 -0.0988,0.31571 0.32275,0.10346 0.0999,-0.31509 v 0"
           id="path1105-9"
           inkscape:connector-curvature="0"
           style="fill:#ffffff;stroke-width:0.016002" />
        <path
           d="m 220.89721,115.20609 -0.0991,0.31296 0.32128,0.10278 0.10004,-0.31236 -0.32228,-0.10319 v 0"
           id="path1103-2"
           inkscape:connector-curvature="0"
           style="fill:#ffffff;stroke-width:0.016002" />
        <path
           d="m 223.56994,115.71793 -0.10812,0.31044 0.31845,0.10209 0.10908,-0.30985 -0.31945,-0.10264 v 0"
           id="path1101-0"
           inkscape:connector-curvature="0"
           style="fill:#ffffff;stroke-width:0.016002" />
        <path
           d="m 219.92736,114.8955 -0.0961,0.31471 0.32269,0.10319 0.0972,-0.31411 -0.32373,-0.10374 v 0"
           id="path1099-2"
           inkscape:connector-curvature="0"
           style="fill:#ffffff;stroke-width:0.016002" />
        <path
           d="m 222.82361,115.82386 -0.10524,0.30948 0.3184,0.10182 0.10648,-0.30891 -0.3194,-0.10236 v 0"
           id="path1097-3"
           inkscape:connector-curvature="0"
           style="fill:#ffffff;stroke-width:0.016002" />
        <path
           d="m 220.37895,115.72799 -0.19303,0.61654 0.63692,0.20216 0.19707,-0.61427 -0.64096,-0.20443 v 0"
           id="path1095-7"
           inkscape:connector-curvature="0"
           style="fill:#ffffff;stroke-width:0.016002" />
        <path
           d="m 221.45791,116.74822 -0.19838,0.60384 0.62929,0.19874 0.20231,-0.60161 -0.63322,-0.20097 v 0"
           id="path1093-5"
           inkscape:connector-curvature="0"
           style="fill:#ffffff;stroke-width:0.016002" />
        <path
           d="m 221.25953,117.35206 -0.63112,-0.19932 -0.19185,0.59805 0.62723,0.19713 0.19574,-0.59586 v 0"
           id="path1091-9"
           inkscape:connector-curvature="0"
           style="fill:#ffffff;stroke-width:0.016002" />
        <path
           d="m 221.06379,117.94792 -0.19318,0.58801 0.62159,0.19442 0.19699,-0.58585 -0.6254,-0.19658 v 0"
           id="path1089-2"
           inkscape:connector-curvature="0"
           style="fill:#ffffff;stroke-width:0.016002" />
        <path
           d="m 220.43656,117.75079 -0.62904,-0.1977 0.18795,-0.60023 -0.63485,-0.20048 -0.18401,0.60243 -0.36069,1.18116 1.24448,0.38741 0.37616,-1.17259 v 0"
           id="path1087-2"
           inkscape:connector-curvature="0"
           style="fill:#ffffff;stroke-width:0.016002" />
        <path
           d="m 220.0604,118.92338 -0.36993,1.14125 -0.74517,5.9282 2.37267,-6.68426 -1.25757,-0.38519 v 0"
           id="path1085-8"
           inkscape:connector-curvature="0"
           style="fill:#ffffff;stroke-width:0.016002" />
        <path
           d="m 219.69085,120.06474 -1.22632,-0.37821 -0.34241,1.12116 1.22969,0.35621"
           id="rect1104-3-8-7-6-3-94-69-7-6-9"
           inkscape:connector-curvature="0"
           style="fill:#ffffff;stroke-width:0.016002" />
      </g>
    </g>
    <g
       id="svg_81">
      <g
         transform="scale(0.00470859)"
         id="svg_29" />
    </g>
    <g
       stroke="null"
       id="svg_162"
       transform="matrix(1.5899562,0,0,1.6371456,-84.826754,-27.602043)">
      <g
         stroke="null"
         transform="matrix(0.37999051,0,0,0.37999051,-11563.336,-3952.1857)"
         id="svg_86">
        <g
           stroke="null"
           id="svg_88">
          <g
             stroke="null"
             id="svg_89">
            <g
               stroke="null"
               id="svg_90">
              <path
                 stroke="null"
                 id="svg_91"
                 d="m 30596.874,10585.094 c 0,1.197 -0.898,2.097 -2.088,2.097 h -4.096 c -1.197,0 -2.088,-0.899 -2.088,-2.097 v -22.716 c 0,-4.543 -3.725,-8.272 -8.268,-8.272 h -16.541 v 30.988 c 0,1.197 -0.967,2.097 -2.084,2.097 h -4.177 c -1.116,0 -2.007,-0.899 -2.007,-2.097 v -37.249 c 0,-1.116 0.891,-2.084 2.007,-2.084 h 22.802 c 9.086,0 16.539,7.454 16.539,16.617 v 22.716 z"
                 style="fill:#ffffff;fill-opacity:1"
                 inkscape:connector-curvature="0" />
              <path
                 stroke="null"
                 id="svg_92"
                 d="m 30728.702,10585.094 c 0,1.197 -0.891,2.097 -2.084,2.097 h -26.898 c -6.854,0 -12.367,-5.519 -12.367,-12.444 0,-6.857 5.514,-12.368 12.367,-12.368 h 20.715 c 0,-4.543 -3.725,-8.272 -8.271,-8.272 h -14.527 c -1.121,0 -2.016,-0.977 -2.016,-2.093 v -4.168 c 0,-1.116 0.895,-2.084 2.016,-2.084 h 14.527 c 9.094,0 16.539,7.454 16.539,16.617 v 22.715 z m -8.267,-14.447 h -20.715 c -2.314,0 -4.1,1.785 -4.1,4.1 0,2.31 1.785,4.168 4.1,4.168 h 20.715 z"
                 style="fill:#ffffff;fill-opacity:1"
                 inkscape:connector-curvature="0" />
              <path
                 stroke="null"
                 id="svg_93"
                 d="m 30775.802,10585.094 c 0,1.197 -0.891,2.097 -2.09,2.097 h -6.184 c -9.086,0 -16.535,-7.454 -16.535,-16.544 v -16.541 h -14.533 c -1.117,0 -2.012,-0.977 -2.012,-2.093 v -4.168 c 0,-1.116 0.895,-2.084 2.012,-2.084 h 14.533 v -13.362 c 0,-1.193 0.891,-2.084 2.084,-2.084 h 4.096 c 1.197,0 2.092,0.891 2.092,2.084 v 13.362 h 14.447 c 1.199,0 2.09,0.968 2.09,2.084 v 4.168 c 0,1.116 -0.891,2.093 -2.09,2.093 h -14.447 v 16.541 c 0,4.547 3.725,8.268 8.264,8.268 h 6.184 c 1.199,0 2.09,0.895 2.09,2.084 v 4.095 z"
                 style="fill:#ffffff;fill-opacity:1"
                 inkscape:connector-curvature="0" />
              <path
                 stroke="null"
                 id="svg_94"
                 d="m 30850.443,10570.647 c 0,9.09 -7.445,16.544 -16.531,16.544 h -8.271 c -9.092,0 -16.541,-7.454 -16.541,-16.544 v -8.269 c 0,-9.163 7.449,-16.617 16.541,-16.617 h 8.271 c 9.086,0 16.531,7.454 16.531,16.617 z m -8.268,-8.269 c 0,-4.543 -3.721,-8.272 -8.264,-8.272 h -8.271 c -4.549,0 -8.268,3.729 -8.268,8.272 v 8.269 c 0,4.547 3.719,8.268 8.268,8.268 h 8.271 c 4.543,0 8.264,-3.721 8.264,-8.268 z"
                 style="fill:#ffffff;fill-opacity:1"
                 inkscape:connector-curvature="0" />
              <path
                 stroke="null"
                 id="svg_95"
                 d="m 30903.076,10585.094 c 0,1.197 -0.896,2.097 -2.094,2.097 h -4.092 c -1.188,0 -2.084,-0.899 -2.084,-2.097 v -22.716 c 0,-4.543 -3.725,-8.272 -8.271,-8.272 h -16.541 v 30.988 c 0,1.197 -0.971,2.097 -2.084,2.097 h -4.172 c -1.111,0 -2.012,-0.899 -2.012,-2.097 v -37.249 c 0,-1.116 0.9,-2.084 2.012,-2.084 h 22.797 c 9.09,0 16.541,7.454 16.541,16.617 z"
                 style="fill:#ffffff;fill-opacity:1"
                 inkscape:connector-curvature="0" />
              <path
                 stroke="null"
                 id="svg_96"
                 d="m 30541.585,10545.761 h -3.944 c -1.237,0 -2.24,1.003 -2.24,2.24 v 6.103 12.372 12.445 6.033 c 0,1.237 1.003,2.24 2.24,2.24 h 3.788 c 1.237,0 2.24,-1.003 2.24,-2.24 v -6.033 -31.074 c 0,-1.118 -0.891,-2.086 -2.084,-2.086 z"
                 style="fill:#ffffff;fill-opacity:1"
                 inkscape:connector-curvature="0" />
              <path
                 stroke="null"
                 id="svg_97"
                 d="m 30615.725,10545.611 h -3.944 c -1.237,0 -2.24,1.003 -2.24,2.24 v 6.108 12.367 12.441 6.042 c 0,1.237 1.003,2.24 2.24,2.24 h 3.792 c 1.237,0 2.24,-1.003 2.24,-2.24 v -6.042 -31.068 c 0,-1.115 -0.896,-2.088 -2.088,-2.088 z"
                 style="fill:#ffffff;fill-opacity:1"
                 inkscape:connector-curvature="0" />
              <path
                 stroke="null"
                 id="svg_98"
                 d="m 30795.367,10545.761 h -3.942 c -1.236,0 -2.239,1.003 -2.239,2.24 v 6.103 12.372 12.445 6.033 c 0,1.237 1.003,2.24 2.239,2.24 h 3.792 c 1.236,0 2.239,-1.003 2.239,-2.24 v -6.033 -31.071 c -10e-4,-1.121 -0.894,-2.089 -2.089,-2.089 z"
                 style="fill:#ffffff;fill-opacity:1"
                 inkscape:connector-curvature="0" />
              <path
                 stroke="null"
                 id="svg_99"
                 d="m 30673.429,10532.285 c 0,-0.529 -0.211,-1.031 -0.583,-1.401 -0.37,-0.37 -0.882,-0.579 -1.408,-0.576 l -4.313,0.03 c -1.089,0.02 -1.96,0.896 -1.96,1.982 v 32.942 c 0,0.595 -0.273,1.15 -0.728,1.526 l -11.722,9.568 -11.645,-9.568 c -0.454,-0.376 -0.717,-0.932 -0.717,-1.52 v -13.375 c 0,-0.807 -0.372,-1.568 -1.008,-2.064 l -5.035,-3.925 c -0.417,-0.325 -0.981,-0.383 -1.456,-0.152 -0.475,0.232 -0.775,0.714 -0.775,1.242 v 23.382 c 0,0.584 0.263,1.139 0.716,1.516 l 17.189,14.303 c 1.584,1.318 3.881,1.318 5.465,0 l 17.264,-14.307 c 0.453,-0.377 0.715,-0.938 0.715,-1.516 v -38.095 z"
                 style="fill:#ffffff;fill-opacity:1"
                 inkscape:connector-curvature="0" />
              <circle
                 stroke="null"
                 id="svg_100"
                 r="7.52"
                 cy="10528.994"
                 cx="30539.535"
                 style="fill:#ffffff;fill-opacity:1" />
              <circle
                 stroke="null"
                 id="svg_101"
                 r="7.5180001"
                 cy="10528.994"
                 cx="30469.166"
                 style="fill:#ffffff;fill-opacity:1" />
              <circle
                 stroke="null"
                 id="svg_102"
                 r="7.52"
                 cy="10458.806"
                 cx="30524.996"
                 style="fill:#ffffff;fill-opacity:1" />
              <g
                 stroke="null"
                 id="svg_103">
                <path
                   stroke="null"
                   id="svg_104"
                   d="M 30623.233,10455.691"
                   inkscape:connector-curvature="0"
                   style="fill:#005cb9" />
              </g>
              <circle
                 stroke="null"
                 id="svg_105"
                 r="7.52"
                 cy="10453.436"
                 cx="30632.426"
                 style="fill:#ffffff;fill-opacity:1" />
              <path
                 stroke="null"
                 id="svg_106"
                 d="m 30621.199,10604.622 c 0,4.149 -3.368,7.513 -7.522,7.513 -4.154,0 -7.521,-3.363 -7.521,-7.513 0,-4.154 3.367,-7.522 7.521,-7.522 4.154,0 7.522,3.368 7.522,7.522 z"
                 style="fill:#ffffff;fill-opacity:1"
                 inkscape:connector-curvature="0" />
              <circle
                 stroke="null"
                 id="svg_107"
                 r="7.52"
                 cy="10528.994"
                 cx="30793.316"
                 style="fill:#ffffff;fill-opacity:1" />
              <path
                 stroke="null"
                 id="svg_108"
                 d="m 30611.855,10530.314 h -61.386 c -0.795,0 -1.446,-0.653 -1.446,-1.451 0,-0.805 0.651,-1.453 1.446,-1.453 h 56.562 c 0.218,0 0.412,-0.138 0.483,-0.344 0.07,-0.206 0,-0.435 -0.168,-0.569 l -25.072,-19.592 c -4.048,-3.163 -9.729,-3.164 -13.778,0 l -20.126,15.711 c -0.626,0.5 -1.539,0.395 -2.039,-0.228 -0.496,-0.631 -0.391,-1.546 0.236,-2.041 l 22.495,-17.567 c 0.957,-0.747 1.517,-1.892 1.519,-3.105 0,-1.213 -0.553,-2.361 -1.506,-3.111 l -5.351,-4.214 c -3.502,-2.758 -8.255,-3.317 -12.301,-1.447 l -11.213,5.181 c -3.455,1.596 -5.364,5.353 -4.618,9.084 l 2.597,12.987 c 0.156,0.789 -0.357,1.546 -1.145,1.699 -0.786,0.154 -1.548,-0.363 -1.699,-1.148 l -2.672,-13.327 c -0.258,-1.286 -1.091,-2.382 -2.26,-2.975 -1.169,-0.593 -2.546,-0.617 -3.735,-0.07 l -47.874,22.198 c -0.729,0.336 -1.588,0.02 -1.934,-0.705 -0.332,-0.722 -0.02,-1.587 0.703,-1.929 l 47.587,-21.894 0.03,-0.01 c 3.442,-1.595 5.348,-5.337 4.613,-9.06 l -4.169,-21.122 c -0.158,-0.784 0.355,-1.549 1.141,-1.702 0.785,-0.16 1.55,0.351 1.705,1.135 l 4.215,21.347 c 0.254,1.288 1.085,2.388 2.255,2.984 1.169,0.596 2.548,0.622 3.739,0.07 l 11.838,-5.474 c 1.042,-0.481 1.757,-1.471 1.889,-2.61 0.131,-1.14 -0.34,-2.266 -1.244,-2.972 l -19.237,-15.023 c -0.626,-0.493 -0.737,-1.401 -0.246,-2.032 0.493,-0.63 1.403,-0.741 2.038,-0.249 l 18.979,14.796 c 3.502,2.73 8.236,3.273 12.265,1.407 l 56.44,-26.137 c 0.726,-0.352 1.594,-0.05 1.941,0.674 v 0 c 0.33,0.674 0.09,1.482 -0.533,1.869 l -56.952,26.327 c -1.039,0.48 -1.753,1.465 -1.888,2.601 -0.135,1.136 0.331,2.261 1.229,2.97 l 6.941,5.481 c 1.903,1.507 4.588,1.515 6.503,0.02 l 45.225,-35.289 c 0.638,-0.488 1.544,-0.363 2.03,0.273 0.485,0.631 0.367,1.545 -0.273,2.032 l -43.896,34.254 c -0.953,0.748 -1.517,1.896 -1.517,3.11 0,1.221 0.554,2.368 1.517,3.114 l 31.367,24.505 c 0.321,0.324 0.522,0.762 0.522,1.252 0,0.975 -0.797,1.766 -1.769,1.766"
                 style="fill:#ffffff;fill-opacity:1"
                 inkscape:connector-curvature="0" />
              <path
                 stroke="null"
                 id="svg_109"
                 d="m 30528.589,10530.311 c 0.805,0 1.455,-0.651 1.455,-1.447 0,-0.805 -0.65,-1.451 -1.455,-1.451 v 0 h -48.672 v 0 c -0.801,0 -1.446,0.66 -1.441,1.461 0,0.8 0.66,1.441 1.464,1.438 v 0 h 48.649 z"
                 style="fill:#ffffff;fill-opacity:1"
                 inkscape:connector-curvature="0" />
            </g>
          </g>
        </g>
      </g>
    </g>
  </g>
</svg>
